Networks: Community
…
Adding Community Membership to Node Info

I have already added each of the community membership evaluations to a dataframe so I will load that data so I can continue to evaluate it.

Show code

#import data
gd_nodes <- read_csv("giant_df.csv")
gd_nodes

# A tibble: 25 x 9
      X1 `\xef..node.id` name      fg_gd wt_gd lab_gd edge_gd eigen_gd
   <dbl>           <dbl> <chr>     <dbl> <dbl>  <dbl>   <dbl>    <dbl>
 1     1               1 Eric And~     2     1      1       1        1
 2     2               2 John Bar~     2     1      2       2        2
 3     3               3 Bob Bral~     2     1      3       3        3
 4     4               4 Andrew C~     4     1      4       4        4
 5     5               5 John Daw~     3     1      5       5        5
 6     6               6 Willie D~     2     1      6       6        6
 7     7               7 Jerry Ga~     3     1      7       7        7
 8     8               8 Donna Go~     3     1      8       8        8
 9     9               9 Keith Go~     3     1      9       9        9
10    10              10 Gerrit G~     2     1     10      10       10
# ... with 15 more rows, and 1 more variable: spin_gd <dbl>
