Kristina Becvar | DACSS Blog: DACSS 697E Post 2
…
Finally, I can utilize the cleanNLP package:

cnlp_init_udpipe()

annotated <- cnlp_annotate(ukraine_t$lead)

Processed document 10 of 10

head(annotated)

$token
# A tibble: 501 x 11
   doc_id   sid tid   token  token_with_ws  lemma upos  xpos  feats   
 *  <int> <int> <chr> <chr>  <chr>          <chr> <chr> <chr> <chr>   
 1      1     1 1     Follow "Follow "      foll~ VERB  VB    Mood=Im~
 2      1     1 2     live   "live "        live  ADJ   JJ    Degree=~
 3      1     1 3     cover~ "coverage "    cove~ NOUN  NN    Number=~
 4      1     1 4     on     "on "          on    ADP   IN    <NA>    
 5      1     1 5     Russi~ "Russias " Russ~ PROPN NNP   Number=~
 6      1     1 6     invas~ "invasion "    inva~ NOUN  NN    Number=~
 7      1     1 7     of     "of "          of    ADP   IN    <NA>    
 8      1     1 8     Ukrai~ "Ukraine"      Ukra~ PROPN NNP   Number=~
 9      1     1 9     .      "."            .     PUNCT .     <NA>    
10      2     1 1     A      "A "           a     DET   DT    Definit~
# ... with 491 more rows, and 2 more variables: tid_source <chr>,
#   relation <chr>
…
